Most valueable kills
--------------------------------------------
#01 - https://zkillboard.com/kill/40313279/ - 0.37b
#02 - https://zkillboard.com/kill/40404066/ - 0.07b
#03 - https://zkillboard.com/kill/40236161/ - 0.04b
#04 - https://zkillboard.com/kill/40236166/ - 0.04b
#05 - https://zkillboard.com/kill/40370672/ - 0.02b
#06 - https://zkillboard.com/kill/40402464/ - 0.01b
#07 - https://zkillboard.com/kill/40399901/ - 0.01b
#08 - https://zkillboard.com/kill/40335948/ - 0.01b
