Top Nestor pilots - ships destroyed
--------------------------------------------
#01 - inta Vakaria - 12 ships

Top Nestor pilots - ISK destroyed
--------------------------------------------
#01 - inta Vakaria - 2.96b
