Top Nestor pilots - ships destroyed
--------------------------------------------
#01 - inta Vakaria - 26 ships
#02 - Bails Naskingar - 5 ships

Top Nestor pilots - ISK destroyed
--------------------------------------------
#01 - inta Vakaria - 3.66b
#02 - Bails Naskingar - 1.43b
