Ships destroyed
--------------------------------------------
#01 - Jeremaya Bones - 114 ships
#02 - Avacado Salad - 107 ships
#03 - Kanly Aideron - 83 ships
#04 - Arcdale - 80 ships
#05 - Swift Isu - 79 ships
#06 - Tasmine Cha-Tien - 76 ships
#07 - Lexa Griffin - 55 ships
#08 - Stanis Solar - 55 ships
#09 - Malak Saren - 54 ships
#10 - Eithros - 54 ships
#11 - Okaga Utama - 50 ships
#12 - Al3x Oaks - 44 ships
#13 - Quintus Va'Lari - 43 ships
#14 - Pippinthehobbit - 43 ships
#15 - Mei Long - 42 ships
#16 - Bails Naskingar - 40 ships
#17 - Mrs Boom - 36 ships
#18 - Alebrelle Kuatu - 36 ships
#19 - Jessica Two-Wolves - 36 ships
#20 - Inta Vakaria - 33 ships
#21 - SoftCore - 31 ships
#22 - Bdan en Gravonere - 29 ships
#23 - Jack The Slipper - 27 ships
#24 - minold heifer - 27 ships
#25 - Myra Vixen - 27 ships

ISK destroyed
--------------------------------------------
#01 - Tasmine Cha-Tien - 17.82b
#02 - Avacado Salad - 15.36b
#03 - Malak Saren - 12.16b
#04 - Lexa Griffin - 11.81b
#05 - Swift Isu - 11.58b
#06 - Ransom Odunen - 11.46b
#07 - Quintus Va'Lari - 11.43b
#08 - Kanly Aideron - 11.33b
#09 - Mrs Boom - 11.09b
#10 - minold heifer - 10.37b
#11 - Gort getrekt - 9.93b
#12 - Stanis Solar - 9.51b
#13 - Pippinthehobbit - 8.94b
#14 - Arcdale - 8.80b
#15 - Sabrez Haklar - 8.61b
#16 - Iracus Varanu - 8.52b
#17 - Alebrelle Kuatu - 8.30b
#18 - Gillion Wyrddych - 8.21b
#19 - Hondaryder09 - 8.07b
#20 - Grant Adoudel - 7.81b
#21 - Okaga Utama - 7.43b
#22 - Bails Naskingar - 6.93b
#23 - Fl0w Onzo - 6.74b
#24 - Sharps - 6.60b
#25 - Narcisse Nightmare - 6.51b
