Top explorer hunters - ships destroyed
--------------------------------------------
#01 - Saladiin - 6 ships
#02 - Costa Reaves - 3 ships
#03 - Gra Siorai - 2 ships

Top explorer hunters - ISK destroyed
--------------------------------------------
#01 - Saladiin - 0.26b
#02 - Gra Siorai - 0.20b
#03 - Costa Reaves - 0.04b
