Top Astero pilots - ships destroyed
--------------------------------------------
#01 - Dj Turner - 4 ships

Top Astero pilots - ISK destroyed
--------------------------------------------
#01 - Dj Turner - 0.27b
